module github.com/kpenfound/greetings-api

go 1.18

require (
	github.com/aws/aws-sdk-go v1.44.116
	github.com/gin-gonic/gin v1.8.1
	go.dagger.io/dagger v0.2.35-0.20221014183251-473208f9f6f4
	gotest.tools/v3 v3.0.3
)

require (
	github.com/Khan/genqlient v0.5.0 // indirect
	github.com/Microsoft/go-winio v0.6.0 // indirect
	github.com/agext/levenshtein v1.2.3 // indirect
	github.com/bhoriuchi/graphql-go-tools v1.0.0 // indirect
	github.com/cenkalti/backoff/v4 v4.1.3 // indirect
	github.com/containerd/console v1.0.3 // indirect
	github.com/containerd/containerd v1.6.8 // indirect
	github.com/containerd/continuity v0.3.0 // indirect
	github.com/containerd/ttrpc v1.1.0 // indirect
	github.com/containerd/typeurl v1.0.2 // indirect
	github.com/docker/cli v20.10.18+incompatible // indirect
	github.com/docker/distribution v2.8.1+incompatible // indirect
	github.com/docker/docker v20.10.18+incompatible // indirect
	github.com/docker/docker-credential-helpers v0.7.0 // indirect
	github.com/docker/go-connections v0.4.0 // indirect
	github.com/docker/go-units v0.5.0 // indirect
	github.com/gin-contrib/sse v0.1.0 // indirect
	github.com/go-logr/logr v1.2.3 // indirect
	github.com/go-logr/stdr v1.2.2 // indirect
	github.com/go-playground/locales v0.14.0 // indirect
	github.com/go-playground/universal-translator v0.18.0 // indirect
	github.com/go-playground/validator/v10 v10.10.0 // indirect
	github.com/goccy/go-json v0.9.7 // indirect
	github.com/gofrs/flock v0.8.1 // indirect
	github.com/gogo/googleapis v1.4.1 // indirect
	github.com/gogo/protobuf v1.3.2 // indirect
	github.com/golang/protobuf v1.5.2 // indirect
	github.com/google/go-cmp v0.5.9 // indirect
	github.com/google/shlex v0.0.0-20191202100458-e7afc7fbc510 // indirect
	github.com/graphql-go/graphql v0.8.0 // indirect
	github.com/graphql-go/handler v0.2.3 // indirect
	github.com/grpc-ecosystem/go-grpc-middleware v1.3.0 // indirect
	github.com/grpc-ecosystem/grpc-gateway/v2 v2.11.3 // indirect
	github.com/iancoleman/strcase v0.2.0 // indirect
	github.com/jmespath/go-jmespath v0.4.0 // indirect
	github.com/json-iterator/go v1.1.12 // indirect
	github.com/klauspost/compress v1.15.11 // indirect
	github.com/leodido/go-urn v1.2.1 // indirect
	github.com/mattn/go-colorable v0.1.13 // indirect
	github.com/mattn/go-isatty v0.0.16 // indirect
	github.com/mitchellh/go-homedir v1.1.0 // indirect
	github.com/moby/buildkit v0.10.4 // indirect
	github.com/moby/locker v1.0.1 // indirect
	github.com/moby/sys/signal v0.7.0 // indirect
	github.com/modern-go/concurrent v0.0.0-20180306012644-bacd9c7ef1dd // indirect
	github.com/modern-go/reflect2 v1.0.2 // indirect
	github.com/morikuni/aec v1.0.0 // indirect
	github.com/opencontainers/go-digest v1.0.0 // indirect
	github.com/opencontainers/image-spec v1.1.0-rc2 // indirect
	github.com/pelletier/go-toml/v2 v2.0.1 // indirect
	github.com/pkg/errors v0.9.1 // indirect
	github.com/rs/zerolog v1.28.0 // indirect
	github.com/sirupsen/logrus v1.9.0 // indirect
	github.com/tonistiigi/fsutil v0.0.0-20220115021204-b19f7f9cb274 // indirect
	github.com/tonistiigi/units v0.0.0-20180711220420-6950e57a87ea // indirect
	github.com/tonistiigi/vt100 v0.0.0-20210615222946-8066bb97264f // indirect
	github.com/ugorji/go/codec v1.2.7 // indirect
	github.com/vektah/gqlparser/v2 v2.5.1 // indirect
	go.opentelemetry.io/contrib/instrumentation/google.golang.org/grpc/otelgrpc v0.36.3 // indirect
	go.opentelemetry.io/otel v1.11.0 // indirect
	go.opentelemetry.io/otel/exporters/jaeger v1.11.0 // indirect
	go.opentelemetry.io/otel/exporters/otlp/internal/retry v1.11.0 // indirect
	go.opentelemetry.io/otel/exporters/otlp/otlptrace v1.11.0 // indirect
	go.opentelemetry.io/otel/exporters/otlp/otlptrace/otlptracegrpc v1.11.0 // indirect
	go.opentelemetry.io/otel/exporters/otlp/otlptrace/otlptracehttp v1.11.0 // indirect
	go.opentelemetry.io/otel/sdk v1.11.0 // indirect
	go.opentelemetry.io/otel/trace v1.11.0 // indirect
	go.opentelemetry.io/proto/otlp v0.19.0 // indirect
	golang.org/x/crypto v0.0.0-20221012134737-56aed061732a // indirect
	golang.org/x/mod v0.6.0-dev.0.20220419223038-86c51ed26bb4 // indirect
	golang.org/x/net v0.0.0-20221012135044-0b7e1fb9d458 // indirect
	golang.org/x/sync v0.0.0-20220929204114-8fcdb60fdcc0 // indirect
	golang.org/x/sys v0.0.0-20221010170243-090e33056c14 // indirect
	golang.org/x/text v0.3.8 // indirect
	golang.org/x/time v0.0.0-20220922220347-f3bd1da661af // indirect
	golang.org/x/tools v0.1.12 // indirect
	google.golang.org/genproto v0.0.0-20221010155953-15ba04fc1c0e // indirect
	google.golang.org/grpc v1.50.0 // indirect
	google.golang.org/protobuf v1.28.1 // indirect
	gopkg.in/yaml.v2 v2.4.0 // indirect
)

replace github.com/docker/docker => github.com/docker/docker v20.10.3-0.20220414164044-61404de7df1a+incompatible
